[gd_scene load_steps=3 format=2]

[ext_resource path="res://iconKinematic.png" type="Texture" id=1]

[sub_resource type="RectangleShape2D" id=1]

custom_solver_bias = 0.0
extents = Vector2( 12.6597, 12.4117 )

[node name="KinematicBody2D" type="KinematicBody2D"]

position = Vector2( 150.22, 104.83 )
input_pickable = false
collision_layer = 1
collision_mask = 1
collision/safe_margin = 0.08

[node name="CollisionShape2D" type="CollisionShape2D" parent="." index="0"]

position = Vector2( -0.122094, -0.224153 )
scale = Vector2( 2.51475, 2.53554 )
shape = SubResource( 1 )

[node name="Sprite" type="Sprite" parent="." index="1"]

texture = ExtResource( 1 )


